…
Use a `gemini_list_models()` function to get a data frame with information about all available models at the Gemini API. 


```r
gemini_list_models() %>% 
  filter(startsWith(displayName, "Gemini 2"))
```

```
## Warning: Outer names are only allowed for unnamed scalar atomic inputs
```

```
## # A tibble: 25 × 11
##    name    version displayName  description     inputTokenLimit outputTokenLimit
##    <chr>   <chr>   <chr>        <chr>                     <int>            <int>
##  1 models… 2.0     Gemini 2.0 … Gemini 2.0 Fla…         1048576             8192
##  2 models… 2.0     Gemini 2.0 … Gemini 2.0 Fla…         1048576             8192
##  3 models… 2.0     Gemini 2.0 … Gemini 2.0 Fla…         1048576             8192
##  4 models… 2.0     Gemini 2.0 … Gemini 2.0 Fla…         1048576             8192
##  5 models… 2.0     Gemini 2.0 … Gemini 2.0 Fla…         1048576             8192
##  6 models… 2.0     Gemini 2.0 … Stable version…         1048576             8192
##  7 models… 2.0     Gemini 2.0 … Stable version…         1048576             8192
##  8 models… 2.0     Gemini 2.0 … Stable version…         1048576             8192
##  9 models… 2.0     Gemini 2.0 … Stable version…         1048576             8192
## 10 models… 2.0     Gemini 2.0 … Gemini 2.0 Fla…         1048576             8192
## # … with 15 more rows, and 5 more variables: supportedGenerationMethods <list>,
## #   temperature <dbl>, topP <dbl>, topK <int>, maxTemperature <int>
```
